{
    "data": [
      {
        "name": "ZOOTS",
        "ucpc": "0000000000EPWDV0000000000",
        "link": "https://www.cannabisreports.com/api/v1.0/producers/0000000000EPWDV0000000000",
        "qr": "https://www.cannabisreports.com/producer-reports/zoots/qr-code",
        "url": "https://www.cannabisreports.com/producer-reports/zoots",
        "image": "https://www.cannabisreports.com/images/profile/d/full_d4321a2a8a35ae02467717195d626c654e080d25.jpg",
        "reviews": {
          "count": 0,
          "link": "https://www.cannabisreports.com/api/v1.0/producers/0000000000EPWDV0000000000/reviews"
        },
        "extracts": {
          "count": 0,
          "link": "https://www.cannabisreports.com/api/v1.0/producers/0000000000EPWDV0000000000/extracts"
        },
        "edibles": {
          "count": 11,
          "link": "https://www.cannabisreports.com/api/v1.0/producers/0000000000EPWDV0000000000/edibles"
        },
        "products": {
          "count": 0,
          "link": "https://www.cannabisreports.com/api/v1.0/producers/0000000000EPWDV0000000000/products"
        },
        "createdAt": {
          "datetime": "2017-12-21 07:09:15",
          "timezone": "UTC"
        },
        "updatedAt": {
          "datetime": "2017-12-21 07:09:15",
          "timezone": "UTC"
        }
      },
        {
            "name": "Zoobees Doobees",
            "ucpc": "00000000003UWXL0000000000",
            "link": "https://www.cannabisreports.com/api/v1.0/producers/00000000003UWXL0000000000",
            "qr": "https://www.cannabisreports.com/producer-reports/zoobees-doobees/qr-code",
            "url": "https://www.cannabisreports.com/producer-reports/zoobees-doobees",
            "image": "https://www.cannabisreports.com/images/profile/6/full_65e6592d93e8fb0c547ac7df601c78f5b9e32a04.jpg",
            "reviews": {
                "count": 0,
                "link": "https://www.cannabisreports.com/api/v1.0/producers/00000000003UWXL0000000000/reviews"
            },
            "extracts": {
                "count": 0,
                "link": "https://www.cannabisreports.com/api/v1.0/producers/00000000003UWXL0000000000/extracts"
            },
            "edibles": {
                "count": 0,
                "link": "https://www.cannabisreports.com/api/v1.0/producers/00000000003UWXL0000000000/edibles"
            },
            "products": {
                "count": 0,
                "link": "https://www.cannabisreports.com/api/v1.0/producers/00000000003UWXL0000000000/products"
            },
            "createdAt": {
                "datetime": "2017-12-21 07:09:15",
                "timezone": "UTC"
            },
            "updatedAt": {
                "datetime": "2017-12-21 07:09:15",
                "timezone": "UTC"
            }
        },
        {
            "name": "Zombie",
            "ucpc": "0000000000YD2YF0000000000",
            "link": "https://www.cannabisreports.com/api/v1.0/producers/0000000000YD2YF0000000000",
            "qr": "https://www.cannabisreports.com/producer-reports/zombie/qr-code",
            "url": "https://www.cannabisreports.com/producer-reports/zombie",
            "image": "https://www.cannabisreports.com/images/profile/8/full_8cf8c010a78302bea62395027c5adfeff2cad0a2.jpg",
            "reviews": {
                "count": 0,
                "link": "https://www.cannabisreports.com/api/v1.0/producers/0000000000YD2YF0000000000/reviews"
            },
            "extracts": {
                "count": 0,
                "link": "https://www.cannabisreports.com/api/v1.0/producers/0000000000YD2YF0000000000/extracts"
            },
            "edibles": {
                "count": 0,
                "link": "https://www.cannabisreports.com/api/v1.0/producers/0000000000YD2YF0000000000/edibles"
            },
            "products": {
                "count": 0,
                "link": "https://www.cannabisreports.com/api/v1.0/producers/0000000000YD2YF0000000000/products"
            },
            "createdAt": {
                "datetime": "2017-12-21 07:09:15",
                "timezone": "UTC"
            },
            "updatedAt": {
                "datetime": "2017-12-21 07:09:15",
                "timezone": "UTC"
            }
        },
        {
            "name": "Zog Farms",
            "ucpc": "00000000007QNLJ0000000000",
            "link": "https://www.cannabisreports.com/api/v1.0/producers/00000000007QNLJ0000000000",
            "qr": "https://www.cannabisreports.com/producer-reports/zog-farms/qr-code",
            "url": "https://www.cannabisreports.com/producer-reports/zog-farms",
            "image": "https://www.cannabisreports.com/images/profile/5/full_5180244bffde1caab7381c3069021093da729ca8.jpg",
            "reviews": {
                "count": 0,
                "link": "https://www.cannabisreports.com/api/v1.0/producers/00000000007QNLJ0000000000/reviews"
            },
            "extracts": {
                "count": 0,
                "link": "https://www.cannabisreports.com/api/v1.0/producers/00000000007QNLJ0000000000/extracts"
            },
            "edibles": {
                "count": 0,
                "link": "https://www.cannabisreports.com/api/v1.0/producers/00000000007QNLJ0000000000/edibles"
            },
            "products": {
                "count": 0,
                "link": "https://www.cannabisreports.com/api/v1.0/producers/00000000007QNLJ0000000000/products"
            },
            "createdAt": {
                "datetime": "2017-12-21 07:09:15",
                "timezone": "UTC"
            },
            "updatedAt": {
                "datetime": "2017-12-21 07:09:15",
                "timezone": "UTC"
            }
        },
        {
            "name": "Zkittlez",
            "ucpc": "000000000074CZT0000000000",
            "link": "https://www.cannabisreports.com/api/v1.0/producers/000000000074CZT0000000000",
            "qr": "https://www.cannabisreports.com/producer-reports/zkittlez/qr-code",
            "url": "https://www.cannabisreports.com/producer-reports/zkittlez",
            "image": "https://www.cannabisreports.com/images/profile/d/full_dd87e99dea27da15720117cb154d0769f0e9639d.jpg",
            "reviews": {
                "count": 0,
                "link": "https://www.cannabisreports.com/api/v1.0/producers/000000000074CZT0000000000/reviews"
            },
            "extracts": {
                "count": 0,
                "link": "https://www.cannabisreports.com/api/v1.0/producers/000000000074CZT0000000000/extracts"
            },
            "edibles": {
                "count": 0,
                "link": "https://www.cannabisreports.com/api/v1.0/producers/000000000074CZT0000000000/edibles"
            },
            "products": {
                "count": 0,
                "link": "https://www.cannabisreports.com/api/v1.0/producers/000000000074CZT0000000000/products"
            },
            "createdAt": {
                "datetime": "2017-12-21 07:09:14",
                "timezone": "UTC"
            },
            "updatedAt": {
                "datetime": "2017-12-21 07:09:14",
                "timezone": "UTC"
            }
        },
        {
            "name": "Zilla's Performance Edibles",
            "ucpc": "0000000000KEUPF0000000000",
            "link": "https://www.cannabisreports.com/api/v1.0/producers/0000000000KEUPF0000000000",
            "qr": "https://www.cannabisreports.com/producer-reports/zillas-performance-edibles/qr-code",
            "url": "https://www.cannabisreports.com/producer-reports/zillas-performance-edibles",
            "image": "https://www.cannabisreports.com/images/profile/d/full_d2370341bd8fede8a109991a89ba098c2216079f.jpg",
            "reviews": {
                "count": 0,
                "link": "https://www.cannabisreports.com/api/v1.0/producers/0000000000KEUPF0000000000/reviews"
            },
            "extracts": {
                "count": 0,
                "link": "https://www.cannabisreports.com/api/v1.0/producers/0000000000KEUPF0000000000/extracts"
            },
            "edibles": {
                "count": 38,
                "link": "https://www.cannabisreports.com/api/v1.0/producers/0000000000KEUPF0000000000/edibles"
            },
            "products": {
                "count": 0,
                "link": "https://www.cannabisreports.com/api/v1.0/producers/0000000000KEUPF0000000000/products"
            },
            "createdAt": {
                "datetime": "2017-12-21 07:08:59",
                "timezone": "UTC"
            },
            "updatedAt": {
                "datetime": "2017-12-21 07:08:59",
                "timezone": "UTC"
            }
        },
        {
            "name": "Zenith Brands",
            "ucpc": "00000000003HKZX0000000000",
            "link": "https://www.cannabisreports.com/api/v1.0/producers/00000000003HKZX0000000000",
            "qr": "https://www.cannabisreports.com/producer-reports/zenith-brands/qr-code",
            "url": "https://www.cannabisreports.com/producer-reports/zenith-brands",
            "image": "https://www.cannabisreports.com/images/profile/5/full_5a1f0a4961c45d8306b864e5af93afbc8810671b.jpg",
            "reviews": {
                "count": 0,
                "link": "https://www.cannabisreports.com/api/v1.0/producers/00000000003HKZX0000000000/reviews"
            },
            "extracts": {
                "count": 0,
                "link": "https://www.cannabisreports.com/api/v1.0/producers/00000000003HKZX0000000000/extracts"
            },
            "edibles": {
                "count": 0,
                "link": "https://www.cannabisreports.com/api/v1.0/producers/00000000003HKZX0000000000/edibles"
            },
            "products": {
                "count": 0,
                "link": "https://www.cannabisreports.com/api/v1.0/producers/00000000003HKZX0000000000/products"
            },
            "createdAt": {
                "datetime": "2017-12-21 07:08:59",
                "timezone": "UTC"
            },
            "updatedAt": {
                "datetime": "2017-12-21 07:08:59",
                "timezone": "UTC"
            }
        },
        {
            "name": "Zendo",
            "ucpc": "000000000077LZC0000000000",
            "link": "https://www.cannabisreports.com/api/v1.0/producers/000000000077LZC0000000000",
            "qr": "https://www.cannabisreports.com/producer-reports/zendo/qr-code",
            "url": "https://www.cannabisreports.com/producer-reports/zendo",
            "image": "https://www.cannabisreports.com/images/profile/8/full_87870966e32ca6c334a0e34e042a9954401f633e.jpg",
            "reviews": {
                "count": 0,
                "link": "https://www.cannabisreports.com/api/v1.0/producers/000000000077LZC0000000000/reviews"
            },
            "extracts": {
                "count": 0,
                "link": "https://www.cannabisreports.com/api/v1.0/producers/000000000077LZC0000000000/extracts"
            },
            "edibles": {
                "count": 2,
                "link": "https://www.cannabisreports.com/api/v1.0/producers/000000000077LZC0000000000/edibles"
            },
            "products": {
                "count": 0,
                "link": "https://www.cannabisreports.com/api/v1.0/producers/000000000077LZC0000000000/products"
            },
            "createdAt": {
                "datetime": "2017-12-21 07:08:58",
                "timezone": "UTC"
            },
            "updatedAt": {
                "datetime": "2017-12-21 07:08:58",
                "timezone": "UTC"
            }
        },
        {
            "name": "Zen Labs Co",
            "ucpc": "0000000000GX36G0000000000",
            "link": "https://www.cannabisreports.com/api/v1.0/producers/0000000000GX36G0000000000",
            "qr": "https://www.cannabisreports.com/producer-reports/zen-labs-co/qr-code",
            "url": "https://www.cannabisreports.com/producer-reports/zen-labs-co",
            "image": "https://www.cannabisreports.com/images/profile/9/full_93a8ecf75637d13d0fad313acbb224b977eaf890.jpg",
            "reviews": {
                "count": 0,
                "link": "https://www.cannabisreports.com/api/v1.0/producers/0000000000GX36G0000000000/reviews"
            },
            "extracts": {
                "count": 0,
                "link": "https://www.cannabisreports.com/api/v1.0/producers/0000000000GX36G0000000000/extracts"
            },
            "edibles": {
                "count": 0,
                "link": "https://www.cannabisreports.com/api/v1.0/producers/0000000000GX36G0000000000/edibles"
            },
            "products": {
                "count": 0,
                "link": "https://www.cannabisreports.com/api/v1.0/producers/0000000000GX36G0000000000/products"
            },
            "createdAt": {
                "datetime": "2017-12-21 07:08:58",
                "timezone": "UTC"
            },
            "updatedAt": {
                "datetime": "2017-12-21 07:08:58",
                "timezone": "UTC"
            }
        },
        {
            "name": "Zen Bar",
            "ucpc": "0000000000QTXKW0000000000",
            "link": "https://www.cannabisreports.com/api/v1.0/producers/0000000000QTXKW0000000000",
            "qr": "https://www.cannabisreports.com/producer-reports/zen-bar/qr-code",
            "url": "https://www.cannabisreports.com/producer-reports/zen-bar",
            "image": "https://www.cannabisreports.com/images/profile/7/full_7af24080cb061a54de98b82b12c230db8b338171.jpg",
            "reviews": {
                "count": 0,
                "link": "https://www.cannabisreports.com/api/v1.0/producers/0000000000QTXKW0000000000/reviews"
            },
            "extracts": {
                "count": 0,
                "link": "https://www.cannabisreports.com/api/v1.0/producers/0000000000QTXKW0000000000/extracts"
            },
            "edibles": {
                "count": 0,
                "link": "https://www.cannabisreports.com/api/v1.0/producers/0000000000QTXKW0000000000/edibles"
            },
            "products": {
                "count": 0,
                "link": "https://www.cannabisreports.com/api/v1.0/producers/0000000000QTXKW0000000000/products"
            },
            "createdAt": {
                "datetime": "2017-12-21 07:08:57",
                "timezone": "UTC"
            },
            "updatedAt": {
                "datetime": "2017-12-21 07:08:57",
                "timezone": "UTC"
            }
        }
    ],
    "meta": {
        "pagination": {
            "total": 3601,
            "count": 10,
            "per_page": 10,
            "current_page": 1,
            "total_pages": 361,
            "links": {
                "next": "https://www.cannabisreports.com/api/v1.0/producers?page=2"
            }
        }
    }
}